{
    "data": [
      {
        "courseId": "ec825c50-a5b8-47ff-8eca-356c1cef5aa8",
        "title": "Angular Advanced",
        "description": "Library for Frontend from Google Inc",
        "link": "D:\\LEARNING\\java\\restapi-demo\\assets\\implementasi ERD.png",
        "courseInfo": {
          "courseInfoId": "5aa2634e-efeb-4afd-8b70-68d789170ff9",
          "duration": "7 Hari",
          "level": "BASIC"
        },
        "courseType": {
          "courseTypeId": "f639b9f5-1235-434e-b1f9-6024c1b88551",
          "typeName": "FRONTEND"
        }
      },
      {
        "courseId": "870fdd50-ce3b-4838-87e3-49e33521a6f1",
        "title": "React Fundamental",
        "description": "Library for Frontend",
        "link": "D:\\LEARNING\\java\\restapi-demo\\assets\\deferFunc.png",
        "courseInfo": {
          "courseInfoId": "2cf8b506-d680-43e1-9e44-68880aadecf1",
          "duration": "6 Hari",
          "level": "BASIC"
        },
        "courseType": {
          "courseTypeId": "f639b9f5-1235-434e-b1f9-6024c1b88551",
          "typeName": "FRONTEND"
        }
      }
    ],
    "count": 7,
    "totalPage": 2,
    "page": 1,
    "size": 5
  }